…
``` r
PC %>% arrange(desc(FREQ))
```

    ## # A tibble: 26 x 3
    ##    Magnitude   FREQ Event
    ##    <chr>      <int> <chr>
    ##  1 K         424665 Prop 
    ##  2 K         281832 Crop 
    ##  3 M          11330 Prop 
    ##  4 M           1994 Crop 
    ##  5 0            216 Prop 
    ##  6 B             40 Prop 
    ##  7 5             28 Prop 
    ##  8 1             25 Prop 
    ##  9 k             21 Crop 
    ## 10 0             19 Crop 
    ## # … with 16 more rows
…
1.  H/h = 10^2
2.  K/k = 10^3
3.  M/m = 10^6
4.  B/b = 10^9
5.  anything other than these will be at 0 (filter them out)

<!-- end list -->

``` r
PC %>% arrange(desc(FREQ))
```

    ## # A tibble: 26 x 3
    ##    Magnitude   FREQ Event
    ##    <chr>      <int> <chr>
    ##  1 K         424665 Prop 
    ##  2 K         281832 Crop 
    ##  3 M          11330 Prop 
    ##  4 M           1994 Crop 
    ##  5 0            216 Prop 
    ##  6 B             40 Prop 
    ##  7 5             28 Prop 
    ##  8 1             25 Prop 
    ##  9 k             21 Crop 
    ## 10 0             19 Crop 
    ## # … with 16 more rows
…
